{
  "-L6ubMOHdZJolhd0IQaT" : {
    "brand" : "Škoda",
    "description" : "Perfect czech car",
    "fuel" : "diesel",
    "model" : "Superb",
    "power" : 120
  },
  "-L6ucUBi9wWPjs_htuXJ" : {
    "brand" : "Volkswagen",
    "description" : "Basic small car with long history",
    "fuel" : "petrol",
    "model" : "Golf",
    "power" : 100
  },
  "-L6uctIP9LRh3qA1xncn" : {
    "brand" : "Porsche",
    "fuel" : "petrol",
    "model" : "911",
    "power" : 270
  }
}
